Golden Rules for Reproducible Statistical Analyses
…
2.3 Example 2: special characters in graphics

Here we show how we can make exceptions to the naming conventions when displaying graphics, without actually altering the data. We use the Korean MERS dataset from the outbreaks package, and use French labels to justify the accents:

## load and clean data
mers <- outbreaks::mers_korea_2015$linelist %>%
  as_tibble() %>%
  clean_data()

mers
## # A tibble: 162 x 15
##    id      age age_class sex   place_infect reporting_ctry loc_hosp
##    <chr> <int> <chr>     <fct> <fct>        <fct>          <fct>   
##  1 sk_1     68 60_69     m     middle_east  south_korea    pyeongt
##  2 sk_2     63 60_69     f     outside_mid south_korea    pyeongt
##  3 sk_3     76 70_79     m     outside_mid south_korea    pyeongt
##  4 sk_4     46 40_49     f     outside_mid south_korea    pyeongt
##  5 sk_5     50 50_59     m     outside_mid south_korea    365_yeo
##  6 sk_6     71 70_79     m     outside_mid south_korea    pyeongt
##  7 sk_7     28 20_29     f     outside_mid south_korea    pyeongt
##  8 sk_8     46 40_49     f     outside_mid south_korea    seoul_c
##  9 sk_9     56 50_59     m     outside_mid south_korea    pyeongt
## 10 sk_10    44 40_49     m     outside_mid china          pyeongt
## #  with 152 more rows, and 8 more variables: dt_onset <date>,
## #   dt_report <date>, week_report <fct>, dt_start_exp <date>,
## #   dt_end_exp <date>, dt_diag <date>, outcome <fct>, dt_death <date>
…
